\relax 
\catcode `:\active 
\catcode `;\active 
\catcode `!\active 
\catcode `?\active 
\babel@aux{french}{}
\@writefile{toc}{\contentsline {section}{\numberline {1}Introduction}{3}}
\@writefile{toc}{\contentsline {paragraph}{}{3}}
\@writefile{toc}{\contentsline {paragraph}{}{3}}
\@writefile{toc}{\contentsline {paragraph}{}{3}}
\@writefile{toc}{\contentsline {paragraph}{}{3}}
\@writefile{toc}{\contentsline {section}{\numberline {2}Description}{4}}
\@writefile{toc}{\contentsline {paragraph}{}{4}}
\@writefile{toc}{\contentsline {paragraph}{}{4}}
\@writefile{toc}{\contentsline {paragraph}{}{4}}
\@writefile{lof}{\contentsline {figure}{\numberline {1}{\ignorespaces  Exemple}}{4}}
\newlabel{exemple}{{1}{4}}
\@writefile{toc}{\contentsline {paragraph}{}{5}}
\@writefile{toc}{\contentsline {section}{\numberline {3}\'{E}tat de l'art}{5}}
\@writefile{toc}{\contentsline {paragraph}{}{5}}
\@writefile{toc}{\contentsline {paragraph}{}{5}}
\@writefile{toc}{\contentsline {section}{\numberline {4}Origine}{5}}
\@writefile{toc}{\contentsline {paragraph}{}{5}}
\@writefile{toc}{\contentsline {section}{\numberline {5}Objectifs}{6}}
\@writefile{toc}{\contentsline {paragraph}{}{6}}
\@writefile{toc}{\contentsline {paragraph}{}{6}}
\@writefile{toc}{\contentsline {section}{\numberline {6}R\IeC {\'e}partition des t\IeC {\^a}ches}{6}}
\@writefile{toc}{\contentsline {paragraph}{}{6}}
\@writefile{toc}{\contentsline {paragraph}{}{6}}
\@writefile{toc}{\contentsline {paragraph}{}{7}}
\@writefile{toc}{\contentsline {paragraph}{}{7}}
\@writefile{lot}{\contentsline {table}{\numberline {1}{\ignorespaces  R\IeC {\'e}partition des t\IeC {\^a}ches}}{7}}
\newlabel{repartition}{{1}{7}}
\@writefile{toc}{\contentsline {section}{\numberline {7}Outils}{7}}
\@writefile{toc}{\contentsline {paragraph}{}{7}}
\@writefile{toc}{\contentsline {section}{\numberline {8}Planning}{8}}
\@writefile{toc}{\contentsline {paragraph}{}{8}}
\@writefile{lot}{\contentsline {table}{\numberline {2}{\ignorespaces  Planning (avancement en \%)}}{8}}
\newlabel{planning}{{2}{8}}
\@writefile{toc}{\contentsline {section}{\numberline {9}Conclusion}{8}}
\@writefile{toc}{\contentsline {paragraph}{}{8}}
\@writefile{toc}{\contentsline {paragraph}{}{8}}
\@writefile{toc}{\contentsline {paragraph}{}{9}}
\@writefile{toc}{\contentsline {paragraph}{}{9}}
\@writefile{toc}{\contentsline {section}{\numberline {10}D\IeC {\'e}finitions}{10}}
\newlabel{definitions}{{10}{10}}
\newlabel{C}{{1}{10}}
\newlabel{jeu}{{2}{10}}
\newlabel{gameplay}{{3}{10}}
\newlabel{tuto}{{4}{10}}
\newlabel{scoring}{{5}{10}}
\newlabel{isart}{{6}{10}}
\newlabel{scratch}{{7}{10}}
\newlabel{path}{{8}{10}}
\newlabel{latex}{{9}{10}}
\newlabel{map}{{10}{10}}
\newlabel{minimap}{{11}{10}}
\newlabel{blender}{{12}{10}}
\newlabel{gitlab}{{13}{10}}
\newlabel{cms}{{14}{10}}
\newlabel{html}{{15}{11}}
\newlabel{css}{{16}{11}}
\newlabel{php}{{17}{11}}
