\babel@toc {french}{}
\contentsline {section}{\numberline {1}Introduction}{3}
\contentsline {paragraph}{}{3}
\contentsline {paragraph}{}{3}
\contentsline {paragraph}{}{3}
\contentsline {paragraph}{}{3}
\contentsline {section}{\numberline {2}Description}{4}
\contentsline {paragraph}{}{4}
\contentsline {paragraph}{}{4}
\contentsline {paragraph}{}{4}
\contentsline {paragraph}{}{5}
\contentsline {section}{\numberline {3}\'{E}tat de l'art}{5}
\contentsline {paragraph}{}{5}
\contentsline {paragraph}{}{5}
\contentsline {section}{\numberline {4}Origine}{5}
\contentsline {paragraph}{}{5}
\contentsline {section}{\numberline {5}Objectifs}{6}
\contentsline {paragraph}{}{6}
\contentsline {paragraph}{}{6}
\contentsline {section}{\numberline {6}R\IeC {\'e}partition des t\IeC {\^a}ches}{6}
\contentsline {paragraph}{}{6}
\contentsline {paragraph}{}{6}
\contentsline {paragraph}{}{7}
\contentsline {paragraph}{}{7}
\contentsline {section}{\numberline {7}Outils}{7}
\contentsline {paragraph}{}{7}
\contentsline {section}{\numberline {8}Planning}{8}
\contentsline {paragraph}{}{8}
\contentsline {section}{\numberline {9}Conclusion}{8}
\contentsline {paragraph}{}{8}
\contentsline {paragraph}{}{8}
\contentsline {paragraph}{}{9}
\contentsline {paragraph}{}{9}
\contentsline {section}{\numberline {10}D\IeC {\'e}finitions}{10}
