\relax 
\catcode `:\active 
\catcode `;\active 
\catcode `!\active 
\catcode `?\active 
\babel@aux{french}{}
\@writefile{toc}{\contentsline {section}{\numberline {1}Introduction}{3}}
\@writefile{toc}{\contentsline {paragraph}{}{3}}
\@writefile{toc}{\contentsline {section}{\numberline {2}Planning}{3}}
\@writefile{lot}{\contentsline {table}{\numberline {1}{\ignorespaces  Reprise du cahier des charges}}{3}}
\newlabel{planning}{{1}{3}}
\@writefile{toc}{\contentsline {paragraph}{}{3}}
\@writefile{toc}{\contentsline {paragraph}{}{4}}
\@writefile{toc}{\contentsline {paragraph}{}{4}}
\@writefile{toc}{\contentsline {section}{\numberline {3}Bonus}{4}}
\@writefile{toc}{\contentsline {section}{\numberline {4}D\IeC {\'e}tail du travail r\IeC {\'e}alis\IeC {\'e}}{4}}
\@writefile{toc}{\contentsline {subsection}{\numberline {4.1}Pierre}{4}}
\@writefile{toc}{\contentsline {paragraph}{}{4}}
\@writefile{toc}{\contentsline {paragraph}{}{4}}
\@writefile{toc}{\contentsline {paragraph}{}{4}}
\@writefile{toc}{\contentsline {paragraph}{}{5}}
\@writefile{lof}{\contentsline {figure}{\numberline {1}{\ignorespaces  Image \IeC {\guillemotleft } pleine largeur \IeC {\guillemotright } sur le site throughgame.fr}}{5}}
\newlabel{site}{{1}{5}}
\@writefile{toc}{\contentsline {paragraph}{}{6}}
\@writefile{toc}{\contentsline {paragraph}{}{6}}
\@writefile{toc}{\contentsline {paragraph}{}{6}}
\@writefile{lof}{\contentsline {figure}{\numberline {2}{\ignorespaces  Vue du supermarch\IeC {\'e}}}{7}}
\newlabel{marche}{{2}{7}}
\@writefile{toc}{\contentsline {paragraph}{}{7}}
\@writefile{toc}{\contentsline {paragraph}{}{7}}
\@writefile{toc}{\contentsline {paragraph}{}{8}}
\@writefile{toc}{\contentsline {paragraph}{}{8}}
\@writefile{toc}{\contentsline {subsection}{\numberline {4.2}Morgan}{8}}
\@writefile{toc}{\contentsline {paragraph}{}{8}}
\@writefile{toc}{\contentsline {paragraph}{}{8}}
\@writefile{lof}{\contentsline {figure}{\numberline {3}{\ignorespaces  Animator coordonnant les animations d'une porte}}{9}}
\newlabel{animator}{{3}{9}}
\@writefile{toc}{\contentsline {paragraph}{}{9}}
\@writefile{toc}{\contentsline {paragraph}{}{9}}
\@writefile{lof}{\contentsline {figure}{\numberline {4}{\ignorespaces  Niveau multijoueurs}}{10}}
\newlabel{multi}{{4}{10}}
\@writefile{toc}{\contentsline {paragraph}{}{10}}
\@writefile{toc}{\contentsline {paragraph}{}{10}}
\@writefile{toc}{\contentsline {subsection}{\numberline {4.3}L\IeC {\'e}o}{11}}
\@writefile{toc}{\contentsline {paragraph}{}{11}}
\@writefile{toc}{\contentsline {paragraph}{}{11}}
\@writefile{toc}{\contentsline {paragraph}{}{11}}
\@writefile{toc}{\contentsline {paragraph}{}{11}}
\@writefile{toc}{\contentsline {paragraph}{}{11}}
\@writefile{lof}{\contentsline {figure}{\numberline {5}{\ignorespaces  Une partie du code pour la m\IeC {\'e}thode \IeC {\guillemotleft } nominative \IeC {\guillemotright }}}{12}}
\newlabel{menu}{{5}{12}}
\@writefile{toc}{\contentsline {paragraph}{}{12}}
\@writefile{toc}{\contentsline {paragraph}{}{12}}
\@writefile{lof}{\contentsline {figure}{\numberline {6}{\ignorespaces  Niveau 3 de L\IeC {\'e}o}}{13}}
\newlabel{niveau3}{{6}{13}}
\@writefile{toc}{\contentsline {paragraph}{}{13}}
\@writefile{toc}{\contentsline {paragraph}{}{13}}
\@writefile{toc}{\contentsline {paragraph}{}{14}}
\@writefile{toc}{\contentsline {paragraph}{}{14}}
\@writefile{lof}{\contentsline {figure}{\numberline {7}{\ignorespaces  Niveau \IeC {\guillemotleft } Mad Circles \IeC {\guillemotright } de L\IeC {\'e}o}}{14}}
\newlabel{mad}{{7}{14}}
\@writefile{toc}{\contentsline {paragraph}{}{14}}
\@writefile{toc}{\contentsline {paragraph}{}{15}}
\@writefile{toc}{\contentsline {paragraph}{}{15}}
\@writefile{toc}{\contentsline {paragraph}{}{15}}
\@writefile{toc}{\contentsline {paragraph}{}{15}}
\@writefile{toc}{\contentsline {paragraph}{}{15}}
\@writefile{toc}{\contentsline {subsection}{\numberline {4.4}S\IeC {\'e}bastien}{16}}
\@writefile{toc}{\contentsline {paragraph}{}{16}}
\@writefile{toc}{\contentsline {paragraph}{}{16}}
\@writefile{toc}{\contentsline {paragraph}{}{16}}
\@writefile{toc}{\contentsline {paragraph}{}{16}}
\@writefile{toc}{\contentsline {paragraph}{}{16}}
\@writefile{toc}{\contentsline {paragraph}{}{16}}
\@writefile{lof}{\contentsline {figure}{\numberline {8}{\ignorespaces  Mini-map}}{17}}
\newlabel{map}{{8}{17}}
\@writefile{toc}{\contentsline {paragraph}{}{17}}
\@writefile{toc}{\contentsline {paragraph}{}{17}}
\@writefile{lof}{\contentsline {figure}{\numberline {9}{\ignorespaces  Exemple du bug des portes}}{18}}
\newlabel{bug}{{9}{18}}
\@writefile{toc}{\contentsline {subsection}{\numberline {4.5}Anass}{18}}
\@writefile{toc}{\contentsline {paragraph}{}{18}}
\@writefile{toc}{\contentsline {paragraph}{}{18}}
\@writefile{toc}{\contentsline {paragraph}{}{18}}
\@writefile{lof}{\contentsline {figure}{\numberline {10}{\ignorespaces  Exemple de labyrinthe du mode \IeC {\guillemotleft } Hardcore \IeC {\guillemotright }}}{19}}
\newlabel{lab}{{10}{19}}
\@writefile{toc}{\contentsline {paragraph}{}{19}}
\@writefile{toc}{\contentsline {paragraph}{}{19}}
\@writefile{lof}{\contentsline {figure}{\numberline {11}{\ignorespaces  Menu pause}}{20}}
\newlabel{pause}{{11}{20}}
\@writefile{toc}{\contentsline {section}{\numberline {5}Travail pour la prochaine soutenance}{20}}
\@writefile{toc}{\contentsline {paragraph}{}{20}}
\@writefile{toc}{\contentsline {paragraph}{}{20}}
\@writefile{toc}{\contentsline {paragraph}{}{20}}
\@writefile{toc}{\contentsline {section}{\numberline {6}Conclusion}{21}}
\@writefile{toc}{\contentsline {paragraph}{}{21}}
\@writefile{toc}{\contentsline {paragraph}{}{21}}
