\babel@toc {french}{}
\contentsline {section}{\numberline {1}Introduction}{3}
\contentsline {paragraph}{}{3}
\contentsline {section}{\numberline {2}Planning}{3}
\contentsline {paragraph}{}{3}
\contentsline {paragraph}{}{4}
\contentsline {paragraph}{}{4}
\contentsline {section}{\numberline {3}Bonus}{4}
\contentsline {section}{\numberline {4}D\IeC {\'e}tail du travail r\IeC {\'e}alis\IeC {\'e}}{4}
\contentsline {subsection}{\numberline {4.1}Pierre}{4}
\contentsline {paragraph}{}{4}
\contentsline {paragraph}{}{4}
\contentsline {paragraph}{}{4}
\contentsline {paragraph}{}{5}
\contentsline {paragraph}{}{6}
\contentsline {paragraph}{}{6}
\contentsline {paragraph}{}{6}
\contentsline {paragraph}{}{7}
\contentsline {paragraph}{}{7}
\contentsline {paragraph}{}{8}
\contentsline {paragraph}{}{8}
\contentsline {subsection}{\numberline {4.2}Morgan}{8}
\contentsline {paragraph}{}{8}
\contentsline {paragraph}{}{8}
\contentsline {paragraph}{}{9}
\contentsline {paragraph}{}{9}
\contentsline {paragraph}{}{10}
\contentsline {paragraph}{}{10}
\contentsline {subsection}{\numberline {4.3}L\IeC {\'e}o}{11}
\contentsline {paragraph}{}{11}
\contentsline {paragraph}{}{11}
\contentsline {paragraph}{}{11}
\contentsline {paragraph}{}{11}
\contentsline {paragraph}{}{11}
\contentsline {paragraph}{}{12}
\contentsline {paragraph}{}{12}
\contentsline {paragraph}{}{13}
\contentsline {paragraph}{}{13}
\contentsline {paragraph}{}{14}
\contentsline {paragraph}{}{14}
\contentsline {paragraph}{}{14}
\contentsline {paragraph}{}{15}
\contentsline {paragraph}{}{15}
\contentsline {paragraph}{}{15}
\contentsline {paragraph}{}{15}
\contentsline {paragraph}{}{15}
\contentsline {subsection}{\numberline {4.4}S\IeC {\'e}bastien}{16}
\contentsline {paragraph}{}{16}
\contentsline {paragraph}{}{16}
\contentsline {paragraph}{}{16}
\contentsline {paragraph}{}{16}
\contentsline {paragraph}{}{16}
\contentsline {paragraph}{}{16}
\contentsline {paragraph}{}{17}
\contentsline {paragraph}{}{17}
\contentsline {subsection}{\numberline {4.5}Anass}{18}
\contentsline {paragraph}{}{18}
\contentsline {paragraph}{}{18}
\contentsline {paragraph}{}{18}
\contentsline {paragraph}{}{19}
\contentsline {paragraph}{}{19}
\contentsline {section}{\numberline {5}Travail pour la prochaine soutenance}{20}
\contentsline {paragraph}{}{20}
\contentsline {paragraph}{}{20}
\contentsline {paragraph}{}{20}
\contentsline {section}{\numberline {6}Conclusion}{21}
\contentsline {paragraph}{}{21}
\contentsline {paragraph}{}{21}
