PWD C:/Users/Sébastien Hoehn/Through/Documents
INPUT d:/Programmes/TeXLive/2017/texmf.cnf
INPUT d:/Programmes/TeXLive/2017/texmf-dist/web2c/texmf.cnf
INPUT d:/Programmes/TeXLive/2017/texmf-var/web2c/pdftex/pdflatex.fmt
INPUT ./Compte-rendu_soutenance2.tex
OUTPUT Compte-rendu_soutenance2.log
INPUT d:/Programmes/TeXLive/2017/texmf-dist/tex/latex/base/article.cls
INPUT d:/Programmes/TeXLive/2017/texmf-dist/tex/latex/base/article.cls
INPUT d:/Programmes/TeXLive/2017/texmf-dist/tex/latex/base/size11.clo
INPUT d:/Programmes/TeXLive/2017/texmf-dist/tex/latex/base/size11.clo
INPUT d:/Programmes/TeXLive/2017/texmf-dist/fonts/map/fontname/texfonts.map
INPUT d:/Programmes/TeXLive/2017/texmf-dist/fonts/tfm/public/cm/cmr10.tfm
INPUT d:/Programmes/TeXLive/2017/texmf-dist/tex/generic/babel/babel.sty
INPUT d:/Programmes/TeXLive/2017/texmf-dist/tex/generic/babel/babel.sty
INPUT d:/Programmes/TeXLive/2017/texmf-dist/tex/generic/babel/switch.def
INPUT d:/Programmes/TeXLive/2017/texmf-dist/tex/generic/babel-french/french.ldf
INPUT d:/Programmes/TeXLive/2017/texmf-dist/tex/generic/babel-french/french.ldf
INPUT d:/Programmes/TeXLive/2017/texmf-dist/tex/generic/babel/babel.def
INPUT d:/Programmes/TeXLive/2017/texmf-dist/tex/generic/babel/switch.def
INPUT d:/Programmes/TeXLive/2017/texmf-dist/tex/generic/babel/txtbabel.def
INPUT d:/Programmes/TeXLive/2017/texmf-dist/tex/latex/carlisle/scalefnt.sty
INPUT d:/Programmes/TeXLive/2017/texmf-dist/tex/latex/carlisle/scalefnt.sty
INPUT d:/Programmes/TeXLive/2017/texmf-dist/tex/latex/graphics/keyval.sty
INPUT d:/Programmes/TeXLive/2017/texmf-dist/tex/latex/graphics/keyval.sty
INPUT d:/Programmes/TeXLive/2017/texmf-dist/tex/latex/opensans/opensans.sty
INPUT d:/Programmes/TeXLive/2017/texmf-dist/tex/latex/opensans/opensans.sty
INPUT d:/Programmes/TeXLive/2017/texmf-dist/tex/latex/slantsc/slantsc.sty
INPUT d:/Programmes/TeXLive/2017/texmf-dist/tex/latex/slantsc/slantsc.sty
INPUT d:/Programmes/TeXLive/2017/texmf-dist/tex/latex/base/ifthen.sty
INPUT d:/Programmes/TeXLive/2017/texmf-dist/tex/latex/base/ifthen.sty
INPUT d:/Programmes/TeXLive/2017/texmf-dist/tex/latex/base/fontenc.sty
INPUT d:/Programmes/TeXLive/2017/texmf-dist/tex/latex/base/fontenc.sty
INPUT d:/Programmes/TeXLive/2017/texmf-dist/tex/latex/base/t1enc.def
INPUT d:/Programmes/TeXLive/2017/texmf-dist/tex/latex/base/t1enc.def
INPUT d:/Programmes/TeXLive/2017/texmf-dist/fonts/tfm/jknappen/ec/ecrm1095.tfm
INPUT d:/Programmes/TeXLive/2017/texmf-dist/tex/latex/base/inputenc.sty
INPUT d:/Programmes/TeXLive/2017/texmf-dist/tex/latex/base/inputenc.sty
INPUT d:/Programmes/TeXLive/2017/texmf-dist/tex/latex/base/utf8.def
INPUT d:/Programmes/TeXLive/2017/texmf-dist/tex/latex/base/utf8.def
INPUT d:/Programmes/TeXLive/2017/texmf-dist/tex/latex/base/t1enc.dfu
INPUT d:/Programmes/TeXLive/2017/texmf-dist/tex/latex/base/t1enc.dfu
INPUT d:/Programmes/TeXLive/2017/texmf-dist/tex/latex/base/ot1enc.dfu
INPUT d:/Programmes/TeXLive/2017/texmf-dist/tex/latex/base/ot1enc.dfu
INPUT d:/Programmes/TeXLive/2017/texmf-dist/tex/latex/base/omsenc.dfu
INPUT d:/Programmes/TeXLive/2017/texmf-dist/tex/latex/base/omsenc.dfu
INPUT d:/Programmes/TeXLive/2017/texmf-dist/tex/latex/base/utf8.def
INPUT d:/Programmes/TeXLive/2017/texmf-dist/tex/latex/base/utf8.def
INPUT d:/Programmes/TeXLive/2017/texmf-dist/tex/latex/base/t1enc.dfu
INPUT d:/Programmes/TeXLive/2017/texmf-dist/tex/latex/base/t1enc.dfu
INPUT d:/Programmes/TeXLive/2017/texmf-dist/tex/latex/base/ot1enc.dfu
INPUT d:/Programmes/TeXLive/2017/texmf-dist/tex/latex/base/ot1enc.dfu
INPUT d:/Programmes/TeXLive/2017/texmf-dist/tex/latex/base/omsenc.dfu
INPUT d:/Programmes/TeXLive/2017/texmf-dist/tex/latex/base/omsenc.dfu
INPUT d:/Programmes/TeXLive/2017/texmf-dist/tex/latex/fancyhdr/fancyhdr.sty
INPUT d:/Programmes/TeXLive/2017/texmf-dist/tex/latex/fancyhdr/fancyhdr.sty
INPUT d:/Programmes/TeXLive/2017/texmf-dist/tex/latex/tools/array.sty
INPUT d:/Programmes/TeXLive/2017/texmf-dist/tex/latex/tools/array.sty
INPUT d:/Programmes/TeXLive/2017/texmf-dist/tex/latex/graphics/graphicx.sty
INPUT d:/Programmes/TeXLive/2017/texmf-dist/tex/latex/graphics/graphicx.sty
INPUT d:/Programmes/TeXLive/2017/texmf-dist/tex/latex/graphics/graphics.sty
INPUT d:/Programmes/TeXLive/2017/texmf-dist/tex/latex/graphics/graphics.sty
INPUT d:/Programmes/TeXLive/2017/texmf-dist/tex/latex/graphics/trig.sty
INPUT d:/Programmes/TeXLive/2017/texmf-dist/tex/latex/graphics/trig.sty
INPUT d:/Programmes/TeXLive/2017/texmf-dist/tex/latex/graphics-cfg/graphics.cfg
INPUT d:/Programmes/TeXLive/2017/texmf-dist/tex/latex/graphics-cfg/graphics.cfg
INPUT d:/Programmes/TeXLive/2017/texmf-dist/tex/latex/graphics-def/pdftex.def
INPUT d:/Programmes/TeXLive/2017/texmf-dist/tex/latex/graphics-def/pdftex.def
INPUT Compte-rendu_soutenance2.aux
INPUT Compte-rendu_soutenance2.aux
OUTPUT Compte-rendu_soutenance2.aux
INPUT d:/Programmes/TeXLive/2017/texmf-dist/tex/latex/opensans/t1fosj.fd
INPUT d:/Programmes/TeXLive/2017/texmf-dist/tex/latex/opensans/t1fosj.fd
INPUT d:/Programmes/TeXLive/2017/texmf-dist/fonts/tfm/public/opensans/OpenSans-Regular-OSFigures-t1.tfm
INPUT d:/Programmes/TeXLive/2017/texmf-dist/tex/context/base/mkii/supp-pdf.mkii
INPUT d:/Programmes/TeXLive/2017/texmf-dist/tex/context/base/mkii/supp-pdf.mkii
INPUT d:/Programmes/TeXLive/2017/texmf-dist/tex/latex/oberdiek/epstopdf-base.sty
INPUT d:/Programmes/TeXLive/2017/texmf-dist/tex/latex/oberdiek/epstopdf-base.sty
INPUT d:/Programmes/TeXLive/2017/texmf-dist/tex/generic/oberdiek/infwarerr.sty
INPUT d:/Programmes/TeXLive/2017/texmf-dist/tex/generic/oberdiek/infwarerr.sty
INPUT d:/Programmes/TeXLive/2017/texmf-dist/tex/latex/oberdiek/grfext.sty
INPUT d:/Programmes/TeXLive/2017/texmf-dist/tex/latex/oberdiek/grfext.sty
INPUT d:/Programmes/TeXLive/2017/texmf-dist/tex/generic/oberdiek/kvdefinekeys.sty
INPUT d:/Programmes/TeXLive/2017/texmf-dist/tex/generic/oberdiek/kvdefinekeys.sty
INPUT d:/Programmes/TeXLive/2017/texmf-dist/tex/generic/oberdiek/ltxcmds.sty
INPUT d:/Programmes/TeXLive/2017/texmf-dist/tex/generic/oberdiek/ltxcmds.sty
INPUT d:/Programmes/TeXLive/2017/texmf-dist/tex/latex/oberdiek/kvoptions.sty
INPUT d:/Programmes/TeXLive/2017/texmf-dist/tex/latex/oberdiek/kvoptions.sty
INPUT d:/Programmes/TeXLive/2017/texmf-dist/tex/generic/oberdiek/kvsetkeys.sty
INPUT d:/Programmes/TeXLive/2017/texmf-dist/tex/generic/oberdiek/kvsetkeys.sty
INPUT d:/Programmes/TeXLive/2017/texmf-dist/tex/generic/oberdiek/etexcmds.sty
INPUT d:/Programmes/TeXLive/2017/texmf-dist/tex/generic/oberdiek/etexcmds.sty
INPUT d:/Programmes/TeXLive/2017/texmf-dist/tex/generic/oberdiek/ifluatex.sty
INPUT d:/Programmes/TeXLive/2017/texmf-dist/tex/generic/oberdiek/ifluatex.sty
INPUT d:/Programmes/TeXLive/2017/texmf-dist/tex/generic/oberdiek/pdftexcmds.sty
INPUT d:/Programmes/TeXLive/2017/texmf-dist/tex/generic/oberdiek/pdftexcmds.sty
INPUT d:/Programmes/TeXLive/2017/texmf-dist/tex/generic/oberdiek/ifpdf.sty
INPUT d:/Programmes/TeXLive/2017/texmf-dist/tex/generic/oberdiek/ifpdf.sty
INPUT d:/Programmes/TeXLive/2017/texmf-dist/tex/latex/latexconfig/epstopdf-sys.cfg
INPUT d:/Programmes/TeXLive/2017/texmf-dist/tex/latex/latexconfig/epstopdf-sys.cfg
INPUT d:/Programmes/TeXLive/2017/texmf-dist/fonts/tfm/public/opensans/OpenSans-Regular-OSFigures-t1.tfm
INPUT d:/Programmes/TeXLive/2017/texmf-dist/fonts/tfm/public/opensans/OpenSans-Bold-OSFigures-t1.tfm
INPUT d:/Programmes/TeXLive/2017/texmf-dist/fonts/tfm/public/opensans/OpenSans-Bold-OSFigures-t1.tfm
INPUT d:/Programmes/TeXLive/2017/texmf-dist/fonts/tfm/public/opensans/OpenSans-Regular-OSFigures-t1.tfm
INPUT d:/Programmes/TeXLive/2017/texmf-dist/fonts/tfm/public/cm/cmr12.tfm
INPUT d:/Programmes/TeXLive/2017/texmf-dist/fonts/tfm/public/cm/cmr8.tfm
INPUT d:/Programmes/TeXLive/2017/texmf-dist/fonts/tfm/public/cm/cmr6.tfm
INPUT d:/Programmes/TeXLive/2017/texmf-dist/fonts/tfm/public/cm/cmmi12.tfm
INPUT d:/Programmes/TeXLive/2017/texmf-dist/fonts/tfm/public/cm/cmmi8.tfm
INPUT d:/Programmes/TeXLive/2017/texmf-dist/fonts/tfm/public/cm/cmmi6.tfm
INPUT d:/Programmes/TeXLive/2017/texmf-dist/fonts/tfm/public/cm/cmsy10.tfm
INPUT d:/Programmes/TeXLive/2017/texmf-dist/fonts/tfm/public/cm/cmsy8.tfm
INPUT d:/Programmes/TeXLive/2017/texmf-dist/fonts/tfm/public/cm/cmsy6.tfm
INPUT d:/Programmes/TeXLive/2017/texmf-dist/fonts/tfm/public/opensans/OpenSans-Regular-OSFigures-t1.tfm
INPUT d:/Programmes/TeXLive/2017/texmf-dist/fonts/tfm/public/opensans/OpenSans-Bold-OSFigures-t1.tfm
INPUT throughgameGrand.png
INPUT ./throughgameGrand.png
OUTPUT Compte-rendu_soutenance2.pdf
INPUT ./throughgameGrand.png
INPUT d:/Programmes/TeXLive/2017/texmf-dist/fonts/vf/public/opensans/OpenSans-Bold-OSFigures-t1.vf
INPUT d:/Programmes/TeXLive/2017/texmf-dist/fonts/tfm/public/opensans/OpenSans-Bold-01.tfm
INPUT d:/Programmes/TeXLive/2017/texmf-dist/fonts/tfm/public/opensans/OpenSans-Bold-02.tfm
INPUT d:/Programmes/TeXLive/2017/texmf-dist/fonts/tfm/public/opensans/OpenSans-Bold-03.tfm
INPUT d:/Programmes/TeXLive/2017/texmf-dist/fonts/tfm/public/opensans/OpenSans-Bold-04.tfm
INPUT d:/Programmes/TeXLive/2017/texmf-var/fonts/map/pdftex/updmap/pdftex.map
INPUT d:/Programmes/TeXLive/2017/texmf-dist/fonts/vf/public/opensans/OpenSans-Regular-OSFigures-t1.vf
INPUT d:/Programmes/TeXLive/2017/texmf-dist/fonts/tfm/public/opensans/OpenSans-Regular-01.tfm
INPUT d:/Programmes/TeXLive/2017/texmf-dist/fonts/tfm/public/opensans/OpenSans-Regular-02.tfm
INPUT d:/Programmes/TeXLive/2017/texmf-dist/fonts/tfm/public/opensans/OpenSans-Regular-03.tfm
INPUT d:/Programmes/TeXLive/2017/texmf-dist/fonts/tfm/public/opensans/OpenSans-Regular-04.tfm
INPUT d:/Programmes/TeXLive/2017/texmf-dist/fonts/vf/public/opensans/OpenSans-Regular-OSFigures-t1.vf
INPUT d:/Programmes/TeXLive/2017/texmf-dist/fonts/tfm/public/opensans/OpenSans-Regular-01.tfm
INPUT d:/Programmes/TeXLive/2017/texmf-dist/fonts/tfm/public/opensans/OpenSans-Regular-02.tfm
INPUT d:/Programmes/TeXLive/2017/texmf-dist/fonts/tfm/public/opensans/OpenSans-Regular-03.tfm
INPUT d:/Programmes/TeXLive/2017/texmf-dist/fonts/tfm/public/opensans/OpenSans-Regular-04.tfm
INPUT d:/Programmes/TeXLive/2017/texmf-dist/fonts/vf/public/opensans/OpenSans-Regular-OSFigures-t1.vf
INPUT d:/Programmes/TeXLive/2017/texmf-dist/fonts/tfm/public/opensans/OpenSans-Regular-01.tfm
INPUT d:/Programmes/TeXLive/2017/texmf-dist/fonts/tfm/public/opensans/OpenSans-Regular-02.tfm
INPUT d:/Programmes/TeXLive/2017/texmf-dist/fonts/tfm/public/opensans/OpenSans-Regular-03.tfm
INPUT d:/Programmes/TeXLive/2017/texmf-dist/fonts/tfm/public/opensans/OpenSans-Regular-04.tfm
INPUT d:/Programmes/TeXLive/2017/texmf-dist/fonts/tfm/public/opensans/OpenSans-Bold-OSFigures-t1.tfm
INPUT Compte-rendu_soutenance2.toc
INPUT Compte-rendu_soutenance2.toc
INPUT d:/Programmes/TeXLive/2017/texmf-dist/fonts/tfm/public/opensans/OpenSans-Bold-OSFigures-t1.tfm
INPUT d:/Programmes/TeXLive/2017/texmf-dist/fonts/tfm/public/cm/cmmi10.tfm
INPUT d:/Programmes/TeXLive/2017/texmf-dist/fonts/tfm/public/cm/cmsy10.tfm
OUTPUT Compte-rendu_soutenance2.toc
INPUT d:/Programmes/TeXLive/2017/texmf-dist/fonts/tfm/public/opensans/OpenSans-Italic-OSFigures-t1.tfm
INPUT throughgamePetit.png
INPUT ./throughgamePetit.png
INPUT ./throughgamePetit.png
INPUT d:/Programmes/TeXLive/2017/texmf-dist/fonts/vf/public/opensans/OpenSans-Italic-OSFigures-t1.vf
INPUT d:/Programmes/TeXLive/2017/texmf-dist/fonts/tfm/public/opensans/OpenSans-Italic-01.tfm
INPUT d:/Programmes/TeXLive/2017/texmf-dist/fonts/tfm/public/opensans/OpenSans-Italic-02.tfm
INPUT d:/Programmes/TeXLive/2017/texmf-dist/fonts/tfm/public/opensans/OpenSans-Italic-03.tfm
INPUT d:/Programmes/TeXLive/2017/texmf-dist/fonts/tfm/public/opensans/OpenSans-Italic-04.tfm
INPUT d:/Programmes/TeXLive/2017/texmf-dist/fonts/vf/public/opensans/OpenSans-Bold-OSFigures-t1.vf
INPUT d:/Programmes/TeXLive/2017/texmf-dist/fonts/tfm/public/opensans/OpenSans-Bold-01.tfm
INPUT d:/Programmes/TeXLive/2017/texmf-dist/fonts/tfm/public/opensans/OpenSans-Bold-02.tfm
INPUT d:/Programmes/TeXLive/2017/texmf-dist/fonts/tfm/public/opensans/OpenSans-Bold-03.tfm
INPUT d:/Programmes/TeXLive/2017/texmf-dist/fonts/tfm/public/opensans/OpenSans-Bold-04.tfm
INPUT d:/Programmes/TeXLive/2017/texmf-dist/fonts/vf/public/opensans/OpenSans-Bold-OSFigures-t1.vf
INPUT d:/Programmes/TeXLive/2017/texmf-dist/fonts/tfm/public/opensans/OpenSans-Bold-01.tfm
INPUT d:/Programmes/TeXLive/2017/texmf-dist/fonts/tfm/public/opensans/OpenSans-Bold-02.tfm
INPUT d:/Programmes/TeXLive/2017/texmf-dist/fonts/tfm/public/opensans/OpenSans-Bold-03.tfm
INPUT d:/Programmes/TeXLive/2017/texmf-dist/fonts/tfm/public/opensans/OpenSans-Bold-04.tfm
INPUT d:/Programmes/TeXLive/2017/texmf-dist/fonts/tfm/public/opensans/OpenSans-Regular-SmallCaps-OSFigures-t1.tfm
INPUT d:/Programmes/TeXLive/2017/texmf-dist/fonts/tfm/public/opensans/OpenSans-Regular-OSFigures-t1.tfm
INPUT throughgamePetit.png
INPUT ./throughgamePetit.png
INPUT d:/Programmes/TeXLive/2017/texmf-dist/fonts/vf/public/opensans/OpenSans-Regular-SmallCaps-OSFigures-t1.vf
INPUT d:/Programmes/TeXLive/2017/texmf-dist/fonts/tfm/public/opensans/OpenSans-Regular-01.tfm
INPUT d:/Programmes/TeXLive/2017/texmf-dist/fonts/tfm/public/opensans/OpenSans-Regular-02.tfm
INPUT d:/Programmes/TeXLive/2017/texmf-dist/fonts/tfm/public/opensans/OpenSans-Regular-04.tfm
INPUT d:/Programmes/TeXLive/2017/texmf-dist/fonts/vf/public/opensans/OpenSans-Regular-OSFigures-t1.vf
INPUT d:/Programmes/TeXLive/2017/texmf-dist/fonts/tfm/public/opensans/OpenSans-Regular-01.tfm
INPUT d:/Programmes/TeXLive/2017/texmf-dist/fonts/tfm/public/opensans/OpenSans-Regular-02.tfm
INPUT d:/Programmes/TeXLive/2017/texmf-dist/fonts/tfm/public/opensans/OpenSans-Regular-03.tfm
INPUT d:/Programmes/TeXLive/2017/texmf-dist/fonts/tfm/public/opensans/OpenSans-Regular-04.tfm
INPUT throughgamePetit.png
INPUT ./throughgamePetit.png
INPUT d:/Programmes/TeXLive/2017/texmf-dist/fonts/vf/public/opensans/OpenSans-Bold-OSFigures-t1.vf
INPUT d:/Programmes/TeXLive/2017/texmf-dist/fonts/tfm/public/opensans/OpenSans-Bold-01.tfm
INPUT d:/Programmes/TeXLive/2017/texmf-dist/fonts/tfm/public/opensans/OpenSans-Bold-02.tfm
INPUT d:/Programmes/TeXLive/2017/texmf-dist/fonts/tfm/public/opensans/OpenSans-Bold-03.tfm
INPUT d:/Programmes/TeXLive/2017/texmf-dist/fonts/tfm/public/opensans/OpenSans-Bold-04.tfm
INPUT site.png
INPUT ./site.png
INPUT ./site.png
INPUT throughgamePetit.png
INPUT ./throughgamePetit.png
INPUT marche.png
INPUT ./marche.png
INPUT ./marche.png
INPUT throughgamePetit.png
INPUT ./throughgamePetit.png
INPUT throughgamePetit.png
INPUT ./throughgamePetit.png
INPUT Animator.png
INPUT ./Animator.png
INPUT ./Animator.png
INPUT throughgamePetit.png
INPUT ./throughgamePetit.png
INPUT Niveau_multi.png
INPUT ./Niveau_multi.png
INPUT ./Niveau_multi.png
INPUT throughgamePetit.png
INPUT ./throughgamePetit.png
INPUT throughgamePetit.png
INPUT ./throughgamePetit.png
INPUT Load.png
INPUT ./Load.png
INPUT ./Load.png
INPUT throughgamePetit.png
INPUT ./throughgamePetit.png
INPUT Niveau_3.png
INPUT ./Niveau_3.png
INPUT ./Niveau_3.png
INPUT throughgamePetit.png
INPUT ./throughgamePetit.png
INPUT throughgamePetit.png
INPUT ./throughgamePetit.png
INPUT Niveau_mad.png
INPUT ./Niveau_mad.png
INPUT ./Niveau_mad.png
INPUT throughgamePetit.png
INPUT ./throughgamePetit.png
INPUT throughgamePetit.png
INPUT ./throughgamePetit.png
INPUT mini-map.png
INPUT ./mini-map.png
INPUT ./mini-map.png
INPUT bug.png
INPUT ./bug.png
INPUT ./bug.png
INPUT throughgamePetit.png
INPUT ./throughgamePetit.png
INPUT throughgamePetit.png
INPUT ./throughgamePetit.png
INPUT labyrinthe.png
INPUT ./labyrinthe.png
INPUT ./labyrinthe.png
INPUT throughgamePetit.png
INPUT ./throughgamePetit.png
INPUT Menu_pause.png
INPUT ./Menu_pause.png
INPUT ./Menu_pause.png
INPUT throughgamePetit.png
INPUT ./throughgamePetit.png
INPUT throughgamePetit.png
INPUT ./throughgamePetit.png
INPUT throughgamePetit.png
INPUT ./throughgamePetit.png
INPUT Compte-rendu_soutenance2.aux
INPUT d:/Programmes/TeXLive/2017/texmf-dist/fonts/enc/dvips/opensans/opensans-04.enc
INPUT d:/Programmes/TeXLive/2017/texmf-dist/fonts/enc/dvips/opensans/opensans-02.enc
INPUT d:/Programmes/TeXLive/2017/texmf-dist/fonts/enc/dvips/opensans/opensans-03.enc
INPUT d:/Programmes/TeXLive/2017/texmf-dist/fonts/enc/dvips/cm-super/cm-super-t1.enc
INPUT d:/Programmes/TeXLive/2017/texmf-dist/fonts/enc/dvips/opensans/opensans-01.enc
INPUT d:/Programmes/TeXLive/2017/texmf-dist/fonts/type1/public/opensans/OpenSans-Bold.pfb
INPUT d:/Programmes/TeXLive/2017/texmf-dist/fonts/type1/public/opensans/OpenSans-Italic.pfb
INPUT d:/Programmes/TeXLive/2017/texmf-dist/fonts/type1/public/opensans/OpenSans-Regular.pfb
INPUT d:/Programmes/TeXLive/2017/texmf-dist/fonts/type1/public/cm-super/sfrm1095.pfb
