\babel@toc {french}{}
\contentsline {section}{\numberline {1}Introduction}{3}
\contentsline {paragraph}{}{3}
\contentsline {section}{\numberline {2}Planning}{4}
\contentsline {paragraph}{}{4}
\contentsline {paragraph}{}{4}
\contentsline {paragraph}{}{4}
\contentsline {paragraph}{}{4}
\contentsline {section}{\numberline {3}D\IeC {\'e}tail du travail r\IeC {\'e}alis\IeC {\'e}}{5}
\contentsline {subsection}{\numberline {3.1}Pierre}{5}
\contentsline {paragraph}{}{5}
\contentsline {paragraph}{}{5}
\contentsline {paragraph}{}{5}
\contentsline {paragraph}{}{5}
\contentsline {paragraph}{}{5}
\contentsline {paragraph}{}{5}
\contentsline {paragraph}{}{6}
\contentsline {paragraph}{}{6}
\contentsline {paragraph}{}{7}
\contentsline {paragraph}{}{7}
\contentsline {paragraph}{}{7}
\contentsline {paragraph}{}{7}
\contentsline {subsection}{\numberline {3.2}Morgan}{8}
\contentsline {paragraph}{}{8}
\contentsline {paragraph}{}{8}
\contentsline {paragraph}{}{8}
\contentsline {paragraph}{}{9}
\contentsline {paragraph}{}{9}
\contentsline {paragraph}{}{9}
\contentsline {subsection}{\numberline {3.3}L\IeC {\'e}o}{10}
\contentsline {paragraph}{}{10}
\contentsline {paragraph}{}{10}
\contentsline {paragraph}{}{11}
\contentsline {paragraph}{}{11}
\contentsline {paragraph}{}{11}
\contentsline {paragraph}{}{11}
\contentsline {paragraph}{}{11}
\contentsline {paragraph}{}{12}
\contentsline {paragraph}{}{13}
\contentsline {paragraph}{}{13}
\contentsline {paragraph}{}{13}
\contentsline {paragraph}{}{13}
\contentsline {paragraph}{}{14}
\contentsline {subsection}{\numberline {3.4}S\IeC {\'e}bastien}{14}
\contentsline {paragraph}{}{14}
\contentsline {paragraph}{}{14}
\contentsline {paragraph}{}{14}
\contentsline {paragraph}{}{15}
\contentsline {paragraph}{}{16}
\contentsline {paragraph}{}{16}
\contentsline {section}{\numberline {4}Travail pour la prochaine s\IeC {\'e}ance}{17}
\contentsline {paragraph}{}{17}
\contentsline {paragraph}{}{17}
\contentsline {section}{\numberline {5}Conclusion}{18}
\contentsline {paragraph}{}{18}
\contentsline {paragraph}{}{19}
\contentsline {paragraph}{}{19}
