\relax 
\catcode `:\active 
\catcode `;\active 
\catcode `!\active 
\catcode `?\active 
\babel@aux{french}{}
\@writefile{toc}{\contentsline {section}{\numberline {1}Introduction}{3}}
\@writefile{toc}{\contentsline {paragraph}{}{3}}
\@writefile{lof}{\contentsline {figure}{\numberline {1}{\ignorespaces  Plan du niveau \textit  {WestWorld} sur \textit  {SketchBook}}}{3}}
\newlabel{plan_ww}{{1}{3}}
\@writefile{toc}{\contentsline {section}{\numberline {2}Planning}{4}}
\newlabel{Planning}{{2}{4}}
\@writefile{lot}{\contentsline {table}{\numberline {1}{\ignorespaces  Reprise du cahier des charges}}{4}}
\newlabel{planning}{{1}{4}}
\@writefile{toc}{\contentsline {paragraph}{}{4}}
\@writefile{toc}{\contentsline {paragraph}{}{4}}
\@writefile{toc}{\contentsline {paragraph}{}{4}}
\@writefile{toc}{\contentsline {paragraph}{}{4}}
\@writefile{toc}{\contentsline {section}{\numberline {3}D\IeC {\'e}tail du travail r\IeC {\'e}alis\IeC {\'e}}{5}}
\@writefile{toc}{\contentsline {subsection}{\numberline {3.1}Pierre}{5}}
\@writefile{toc}{\contentsline {paragraph}{}{5}}
\@writefile{toc}{\contentsline {paragraph}{}{5}}
\@writefile{toc}{\contentsline {paragraph}{}{5}}
\@writefile{toc}{\contentsline {paragraph}{}{5}}
\@writefile{toc}{\contentsline {paragraph}{}{5}}
\@writefile{toc}{\contentsline {paragraph}{}{5}}
\@writefile{lof}{\contentsline {figure}{\numberline {2}{\ignorespaces  Niveau de Pierre sur \textit  {Blender 3D}}}{6}}
\newlabel{niveau_p}{{2}{6}}
\@writefile{toc}{\contentsline {paragraph}{}{6}}
\@writefile{toc}{\contentsline {paragraph}{}{6}}
\@writefile{toc}{\contentsline {paragraph}{}{7}}
\@writefile{toc}{\contentsline {paragraph}{}{7}}
\@writefile{toc}{\contentsline {paragraph}{}{7}}
\@writefile{toc}{\contentsline {paragraph}{}{7}}
\@writefile{toc}{\contentsline {subsection}{\numberline {3.2}Morgan}{8}}
\@writefile{toc}{\contentsline {paragraph}{}{8}}
\@writefile{lof}{\contentsline {figure}{\numberline {3}{\ignorespaces  Niveau de Morgan sur Unity}}{8}}
\newlabel{niveau_m}{{3}{8}}
\@writefile{toc}{\contentsline {paragraph}{}{8}}
\@writefile{toc}{\contentsline {paragraph}{}{8}}
\@writefile{lof}{\contentsline {figure}{\numberline {4}{\ignorespaces  Porte avec rotation}}{9}}
\newlabel{porte}{{4}{9}}
\@writefile{toc}{\contentsline {paragraph}{}{9}}
\@writefile{toc}{\contentsline {paragraph}{}{9}}
\@writefile{toc}{\contentsline {paragraph}{}{9}}
\@writefile{lof}{\contentsline {figure}{\numberline {5}{\ignorespaces  Plan d'un niveau sur \textit  {SketchBook}}}{10}}
\newlabel{plan}{{5}{10}}
\@writefile{toc}{\contentsline {subsection}{\numberline {3.3}L\IeC {\'e}o}{10}}
\@writefile{toc}{\contentsline {paragraph}{}{10}}
\@writefile{toc}{\contentsline {paragraph}{}{10}}
\@writefile{toc}{\contentsline {paragraph}{}{11}}
\@writefile{toc}{\contentsline {paragraph}{}{11}}
\@writefile{toc}{\contentsline {paragraph}{}{11}}
\@writefile{toc}{\contentsline {paragraph}{}{11}}
\@writefile{toc}{\contentsline {paragraph}{}{11}}
\@writefile{lof}{\contentsline {figure}{\numberline {6}{\ignorespaces  Niveau de L\IeC {\'e}o sur \textit  {Blender 3D}}}{12}}
\newlabel{niveau_l}{{6}{12}}
\@writefile{toc}{\contentsline {paragraph}{}{12}}
\@writefile{toc}{\contentsline {paragraph}{}{13}}
\@writefile{toc}{\contentsline {paragraph}{}{13}}
\@writefile{toc}{\contentsline {paragraph}{}{13}}
\@writefile{toc}{\contentsline {paragraph}{}{13}}
\@writefile{lof}{\contentsline {figure}{\numberline {7}{\ignorespaces  Menu principal}}{13}}
\newlabel{menu}{{7}{13}}
\@writefile{toc}{\contentsline {paragraph}{}{14}}
\@writefile{toc}{\contentsline {subsection}{\numberline {3.4}S\IeC {\'e}bastien}{14}}
\@writefile{toc}{\contentsline {paragraph}{}{14}}
\@writefile{toc}{\contentsline {paragraph}{}{14}}
\@writefile{toc}{\contentsline {paragraph}{}{14}}
\@writefile{lof}{\contentsline {figure}{\numberline {8}{\ignorespaces  Niveau de S\IeC {\'e}bastien sur \textit  {Blender 3D}}}{15}}
\newlabel{niveau_s}{{8}{15}}
\@writefile{toc}{\contentsline {paragraph}{}{15}}
\@writefile{lof}{\contentsline {figure}{\numberline {9}{\ignorespaces  Vue du dessus de la sc\IeC {\`e}ne contenant le path finding}}{16}}
\newlabel{pathfinding}{{9}{16}}
\@writefile{toc}{\contentsline {paragraph}{}{16}}
\@writefile{toc}{\contentsline {paragraph}{}{16}}
\@writefile{toc}{\contentsline {section}{\numberline {4}Travail pour la prochaine s\IeC {\'e}ance}{17}}
\@writefile{lot}{\contentsline {table}{\numberline {2}{\ignorespaces  Cahier des charges}}{17}}
\newlabel{cdh}{{2}{17}}
\@writefile{toc}{\contentsline {paragraph}{}{17}}
\@writefile{toc}{\contentsline {paragraph}{}{17}}
\@writefile{lof}{\contentsline {figure}{\numberline {10}{\ignorespaces  Un des niveaux du tutoriel sur \textit  {SketchBook}}}{18}}
\newlabel{tuto}{{10}{18}}
\@writefile{toc}{\contentsline {section}{\numberline {5}Conclusion}{18}}
\@writefile{toc}{\contentsline {paragraph}{}{18}}
\@writefile{toc}{\contentsline {paragraph}{}{19}}
\@writefile{toc}{\contentsline {paragraph}{}{19}}
\@writefile{lof}{\contentsline {figure}{\numberline {11}{\ignorespaces  Autre design du logo}}{20}}
\newlabel{logo}{{11}{20}}
