\relax 
\catcode `:\active 
\catcode `;\active 
\catcode `!\active 
\catcode `?\active 
\babel@aux{french}{}
\@writefile{lot}{\contentsline {table}{\numberline {1}{\ignorespaces  Reprise du cahier des charges}}{1}}
\newlabel{planning}{{1}{1}}
