\relax 
\catcode `:\active 
\catcode `;\active 
\catcode `!\active 
\catcode `?\active 
\babel@aux{french}{}
\@writefile{lot}{\contentsline {table}{\numberline {1}{\ignorespaces  Avancement des soutenances pr\IeC {\'e}c\IeC {\'e}dentes}}{1}}
\newlabel{planning}{{1}{1}}
