# Fdb version 3
["pdflatex"] 1525365356 "Plan_de_soutenance2.tex" "Plan_de_soutenance2.pdf" "Plan_de_soutenance2" 1525365357
  "Plan_de_soutenance2.aux" 1525365357 243 1d23549a7c524e82c681d18cb7a18a93 ""
  "Plan_de_soutenance2.tex" 1525365350 1380 f51a64d9c2b8a6b72e30533f9b311dbf ""
  "d:/Programmes/TeXLive/2017/texmf-dist/fonts/enc/dvips/opensans/opensans-01.enc" 1516016944 3294 a5b3bfab503121e0ee00f4c03e6030bf ""
  "d:/Programmes/TeXLive/2017/texmf-dist/fonts/enc/dvips/opensans/opensans-02.enc" 1516016944 3713 0bfaecfd797b8ac7b45962588f782267 ""
  "d:/Programmes/TeXLive/2017/texmf-dist/fonts/enc/dvips/opensans/opensans-03.enc" 1516016944 3639 c4bdda7cbfd557cb725510cb5edb8739 ""
  "d:/Programmes/TeXLive/2017/texmf-dist/fonts/enc/dvips/opensans/opensans-04.enc" 1516016944 3605 60b44bb3c416ade35b1c003aeada3d4e ""
  "d:/Programmes/TeXLive/2017/texmf-dist/fonts/map/fontname/texfonts.map" 1516014473 3332 103109f5612ad95229751940c61aada0 ""
  "d:/Programmes/TeXLive/2017/texmf-dist/fonts/tfm/jknappen/ec/ecrm1095.tfm" 1516013927 3584 929cdff2b7a8c11bd4d49fd68cb0ae70 ""
  "d:/Programmes/TeXLive/2017/texmf-dist/fonts/tfm/public/cm/cmmi10.tfm" 1516012924 1528 abec98dbc43e172678c11b3b9031252a ""
  "d:/Programmes/TeXLive/2017/texmf-dist/fonts/tfm/public/cm/cmmi12.tfm" 1516012924 1524 4414a8315f39513458b80dfc63bff03a ""
  "d:/Programmes/TeXLive/2017/texmf-dist/fonts/tfm/public/cm/cmmi6.tfm" 1516012924 1512 f21f83efb36853c0b70002322c1ab3ad ""
  "d:/Programmes/TeXLive/2017/texmf-dist/fonts/tfm/public/cm/cmmi8.tfm" 1516012924 1520 eccf95517727cb11801f4f1aee3a21b4 ""
  "d:/Programmes/TeXLive/2017/texmf-dist/fonts/tfm/public/cm/cmr10.tfm" 1516012924 1296 45809c5a464d5f32c8f98ba97c1bb47f ""
  "d:/Programmes/TeXLive/2017/texmf-dist/fonts/tfm/public/cm/cmr12.tfm" 1516012924 1288 655e228510b4c2a1abe905c368440826 ""
  "d:/Programmes/TeXLive/2017/texmf-dist/fonts/tfm/public/cm/cmr6.tfm" 1516012924 1300 b62933e007d01cfd073f79b963c01526 ""
  "d:/Programmes/TeXLive/2017/texmf-dist/fonts/tfm/public/cm/cmr8.tfm" 1516012924 1292 21c1c5bfeaebccffdb478fd231a0997d ""
  "d:/Programmes/TeXLive/2017/texmf-dist/fonts/tfm/public/cm/cmsy10.tfm" 1516012924 1124 6c73e740cf17375f03eec0ee63599741 ""
  "d:/Programmes/TeXLive/2017/texmf-dist/fonts/tfm/public/cm/cmsy6.tfm" 1516012924 1116 933a60c408fc0a863a92debe84b2d294 ""
  "d:/Programmes/TeXLive/2017/texmf-dist/fonts/tfm/public/cm/cmsy8.tfm" 1516012924 1120 8b7d695260f3cff42e636090a8002094 ""
  "d:/Programmes/TeXLive/2017/texmf-dist/fonts/tfm/public/opensans/OpenSans-Bold-01.tfm" 1516016944 1564 3d415477fec349cbaf75353dc89724a3 ""
  "d:/Programmes/TeXLive/2017/texmf-dist/fonts/tfm/public/opensans/OpenSans-Bold-02.tfm" 1516016944 1716 d05bb83ea5b13f45c5ea9848e3e10292 ""
  "d:/Programmes/TeXLive/2017/texmf-dist/fonts/tfm/public/opensans/OpenSans-Bold-03.tfm" 1516016944 1872 f03d6e6434f7d7b92ed615f64349acf0 ""
  "d:/Programmes/TeXLive/2017/texmf-dist/fonts/tfm/public/opensans/OpenSans-Bold-04.tfm" 1516016944 1112 90486db52b3b98e6f255e53e8911b835 ""
  "d:/Programmes/TeXLive/2017/texmf-dist/fonts/tfm/public/opensans/OpenSans-Bold-OSFigures-t1.tfm" 1516016944 13460 f1a616cfe9293b5cfff327f76c482ff6 ""
  "d:/Programmes/TeXLive/2017/texmf-dist/fonts/tfm/public/opensans/OpenSans-Regular-01.tfm" 1516016945 1576 4424e01ab9d7fe935cd9e9f4f7a2c7ed ""
  "d:/Programmes/TeXLive/2017/texmf-dist/fonts/tfm/public/opensans/OpenSans-Regular-02.tfm" 1516016945 1728 5a756c0876c93e686b721530cbf6ea4e ""
  "d:/Programmes/TeXLive/2017/texmf-dist/fonts/tfm/public/opensans/OpenSans-Regular-03.tfm" 1516016945 1844 f8b3b6a8877f2fd8a083759554bf6327 ""
  "d:/Programmes/TeXLive/2017/texmf-dist/fonts/tfm/public/opensans/OpenSans-Regular-04.tfm" 1516016945 1116 ab9221cb003e6cc5c3c421bb86843de6 ""
  "d:/Programmes/TeXLive/2017/texmf-dist/fonts/tfm/public/opensans/OpenSans-Regular-OSFigures-t1.tfm" 1516016945 13468 5c8d67799b29717d92905064c31e964f ""
  "d:/Programmes/TeXLive/2017/texmf-dist/fonts/tfm/public/opensans/OpenSans-Regular-SmallCaps-OSFigures-t1.tfm" 1516016945 24280 1aca1f2dc9cc89cf032205413a973b55 ""
  "d:/Programmes/TeXLive/2017/texmf-dist/fonts/type1/public/opensans/OpenSans-Bold.pfb" 1516016945 106354 6bdb41ead05bdb8b185d0910727cb84f ""
  "d:/Programmes/TeXLive/2017/texmf-dist/fonts/type1/public/opensans/OpenSans-Regular.pfb" 1516016945 101049 178f7105ab171c5a34686aa1148aa9b8 ""
  "d:/Programmes/TeXLive/2017/texmf-dist/fonts/vf/public/opensans/OpenSans-Bold-OSFigures-t1.vf" 1516016945 1960 e9c1b12bd5d020533864009931daa9c4 ""
  "d:/Programmes/TeXLive/2017/texmf-dist/fonts/vf/public/opensans/OpenSans-Regular-OSFigures-t1.vf" 1516016945 1972 f045b6cf76d096ac9edc06bceb23faf0 ""
  "d:/Programmes/TeXLive/2017/texmf-dist/fonts/vf/public/opensans/OpenSans-Regular-SmallCaps-OSFigures-t1.vf" 1516016945 2728 d47c50a37474c90e951b1c6a55150ac9 ""
  "d:/Programmes/TeXLive/2017/texmf-dist/tex/generic/babel-french/french.ldf" 1516012100 63052 a68a05f54f6839fdd0e50032d7ebd556 ""
  "d:/Programmes/TeXLive/2017/texmf-dist/tex/generic/babel/babel.def" 1516012081 65875 695fa83b9246738cbdccfa7db6512e8e ""
  "d:/Programmes/TeXLive/2017/texmf-dist/tex/generic/babel/babel.sty" 1516012081 15464 0ba417caf48a61231d41363a5911f4ce ""
  "d:/Programmes/TeXLive/2017/texmf-dist/tex/generic/babel/switch.def" 1516012081 12437 6f1699e06dbd5372d6a0c244f014aedb ""
  "d:/Programmes/TeXLive/2017/texmf-dist/tex/generic/babel/txtbabel.def" 1516012081 5002 f8ed512cd5d2db53c01ab3a607ecdb7f ""
  "d:/Programmes/TeXLive/2017/texmf-dist/tex/latex/base/article.cls" 1516015437 19821 310da678527a7dfe2a02c88af38079b7 ""
  "d:/Programmes/TeXLive/2017/texmf-dist/tex/latex/base/fontenc.sty" 1516015437 4571 13977df0eda144b93597fc709035ad1f ""
  "d:/Programmes/TeXLive/2017/texmf-dist/tex/latex/base/ifthen.sty" 1516015437 5159 a08c9bbd48fc492f15b22e458bef961f ""
  "d:/Programmes/TeXLive/2017/texmf-dist/tex/latex/base/inputenc.sty" 1516015437 4732 d63eda807ac82cca2ca8488efd31a966 ""
  "d:/Programmes/TeXLive/2017/texmf-dist/tex/latex/base/omsenc.dfu" 1516015437 2004 ac51aeac484f08c01026120d62677eca ""
  "d:/Programmes/TeXLive/2017/texmf-dist/tex/latex/base/ot1enc.dfu" 1516015437 3181 1cb3e9ad01f4a01127b2ffd821bfeec7 ""
  "d:/Programmes/TeXLive/2017/texmf-dist/tex/latex/base/size11.clo" 1516015437 8308 f91506bb4df6d8527331f7bbeaf0e63c ""
  "d:/Programmes/TeXLive/2017/texmf-dist/tex/latex/base/t1enc.def" 1516015437 10006 a90ba4035cf778f32f424e297d92e235 ""
  "d:/Programmes/TeXLive/2017/texmf-dist/tex/latex/base/t1enc.dfu" 1516015437 11255 9d97362866549d3d3c994b5f28d1b9b5 ""
  "d:/Programmes/TeXLive/2017/texmf-dist/tex/latex/base/utf8.def" 1516015437 7784 325a2a09984cb5c4ff230f9867145ad3 ""
  "d:/Programmes/TeXLive/2017/texmf-dist/tex/latex/carlisle/scalefnt.sty" 1516012658 1360 df2086bf924b14b72d6121fe9502fcdb ""
  "d:/Programmes/TeXLive/2017/texmf-dist/tex/latex/fancyhdr/fancyhdr.sty" 1516014182 10663 d7fcc0dc4f35e8998b8cfeef8407d37d ""
  "d:/Programmes/TeXLive/2017/texmf-dist/tex/latex/graphics/keyval.sty" 1516014787 2594 d18d5e19aa8239cf867fa670c556d2e9 ""
  "d:/Programmes/TeXLive/2017/texmf-dist/tex/latex/opensans/opensans.sty" 1516016945 1812 6a05fffb10f2883b58a9cc006484e470 ""
  "d:/Programmes/TeXLive/2017/texmf-dist/tex/latex/opensans/t1fosj.fd" 1516016945 3877 8e044a41f7686b517453953495604955 ""
  "d:/Programmes/TeXLive/2017/texmf-dist/tex/latex/slantsc/slantsc.sty" 1516018405 2856 8a1819784341195ef5bcd3c5842b49e1 ""
  "d:/Programmes/TeXLive/2017/texmf-dist/web2c/texmf.cnf" 1516015354 32887 98f6daf93465f813f3c6dc477834d2d9 ""
  "d:/Programmes/TeXLive/2017/texmf-var/fonts/map/pdftex/updmap/pdftex.map" 1516019765 2561391 cba85991bc9136fcc2904bcb0e5b4a72 ""
  "d:/Programmes/TeXLive/2017/texmf-var/web2c/pdftex/pdflatex.fmt" 1516019835 4132952 f44ea3fa3191677856259cd9362e49cd ""
  "d:/Programmes/TeXLive/2017/texmf.cnf" 1516019746 673 4ae7b2f49cee444c5343a45b5d0f169c ""
  (generated)
  "Plan_de_soutenance2.pdf"
  "Plan_de_soutenance2.log"
  "Plan_de_soutenance2.aux"
