\relax 
\catcode `:\active 
\catcode `;\active 
\catcode `!\active 
\catcode `?\active 
\babel@aux{french}{}
\@writefile{toc}{\contentsline {section}{\numberline {1}Introduction}{3}}
\@writefile{toc}{\contentsline {paragraph}{}{3}}
\@writefile{toc}{\contentsline {paragraph}{}{3}}
\@writefile{toc}{\contentsline {paragraph}{}{3}}
\@writefile{toc}{\contentsline {paragraph}{}{3}}
\@writefile{toc}{\contentsline {paragraph}{}{3}}
\@writefile{toc}{\contentsline {paragraph}{}{3}}
\@writefile{toc}{\contentsline {paragraph}{}{4}}
\@writefile{toc}{\contentsline {paragraph}{}{4}}
\@writefile{toc}{\contentsline {section}{\numberline {2}Reprise du cahier des charges}{5}}
\@writefile{lot}{\contentsline {table}{\numberline {1}{\ignorespaces  Avancement des t\IeC {\^a}ches \IeC {\`a} r\IeC {\'e}aliser}}{5}}
\newlabel{planning}{{1}{5}}
\@writefile{toc}{\contentsline {paragraph}{}{5}}
\@writefile{toc}{\contentsline {paragraph}{}{6}}
\@writefile{toc}{\contentsline {paragraph}{}{6}}
\@writefile{toc}{\contentsline {section}{\numberline {3}Bonus}{6}}
\@writefile{toc}{\contentsline {section}{\numberline {4}D\IeC {\'e}tail du travail r\IeC {\'e}alis\IeC {\'e}}{7}}
\@writefile{toc}{\contentsline {subsection}{\numberline {4.1}Pierre}{7}}
\@writefile{toc}{\contentsline {subsubsection}{\numberline {4.1.1}Introduction}{7}}
\@writefile{toc}{\contentsline {paragraph}{}{7}}
\@writefile{toc}{\contentsline {paragraph}{}{7}}
\@writefile{toc}{\contentsline {subsubsection}{\numberline {4.1.2}Reprise des objectifs}{7}}
\@writefile{toc}{\contentsline {paragraph}{}{7}}
\@writefile{toc}{\contentsline {paragraph}{}{8}}
\@writefile{toc}{\contentsline {paragraph}{}{8}}
\@writefile{toc}{\contentsline {subsubsection}{\numberline {4.1.3}Travail personnel}{8}}
\@writefile{toc}{\contentsline {paragraph}{}{8}}
\@writefile{toc}{\contentsline {paragraph}{}{8}}
\@writefile{toc}{\contentsline {paragraph}{}{8}}
\@writefile{toc}{\contentsline {paragraph}{}{9}}
\@writefile{toc}{\contentsline {paragraph}{}{9}}
\@writefile{toc}{\contentsline {paragraph}{}{9}}
\@writefile{toc}{\contentsline {paragraph}{}{9}}
\@writefile{toc}{\contentsline {paragraph}{}{9}}
\@writefile{toc}{\contentsline {paragraph}{}{10}}
\@writefile{lof}{\contentsline {figure}{\numberline {1}{\ignorespaces  Carte du niveau du ch\IeC {\^a}teau}}{10}}
\newlabel{p1}{{1}{10}}
\@writefile{toc}{\contentsline {paragraph}{}{11}}
\@writefile{lof}{\contentsline {figure}{\numberline {2}{\ignorespaces  Carte du niveau du supermarch\IeC {\'e}}}{11}}
\newlabel{p2}{{2}{11}}
\@writefile{toc}{\contentsline {paragraph}{}{11}}
\@writefile{toc}{\contentsline {paragraph}{}{11}}
\@writefile{toc}{\contentsline {paragraph}{}{12}}
\@writefile{toc}{\contentsline {paragraph}{}{12}}
\@writefile{toc}{\contentsline {paragraph}{}{12}}
\@writefile{toc}{\contentsline {paragraph}{}{12}}
\@writefile{toc}{\contentsline {paragraph}{}{13}}
\@writefile{toc}{\contentsline {paragraph}{}{13}}
\@writefile{toc}{\contentsline {paragraph}{}{13}}
\@writefile{toc}{\contentsline {paragraph}{}{13}}
\@writefile{toc}{\contentsline {paragraph}{}{14}}
\@writefile{toc}{\contentsline {paragraph}{}{14}}
\@writefile{toc}{\contentsline {paragraph}{}{14}}
\@writefile{toc}{\contentsline {paragraph}{}{15}}
\@writefile{lof}{\contentsline {figure}{\numberline {3}{\ignorespaces  Image \IeC {\guillemotleft } pleine largeur \IeC {\guillemotright } sur le site throughgame.fr}}{15}}
\newlabel{p3}{{3}{15}}
\@writefile{toc}{\contentsline {paragraph}{}{15}}
\@writefile{toc}{\contentsline {paragraph}{}{15}}
\@writefile{toc}{\contentsline {paragraph}{}{15}}
\@writefile{toc}{\contentsline {paragraph}{}{15}}
\@writefile{toc}{\contentsline {paragraph}{}{16}}
\@writefile{toc}{\contentsline {paragraph}{}{16}}
\@writefile{toc}{\contentsline {paragraph}{}{16}}
\@writefile{toc}{\contentsline {paragraph}{}{16}}
\@writefile{toc}{\contentsline {subsubsection}{\numberline {4.1.4}B\IeC {\'e}n\IeC {\'e}fices du projet}{17}}
\@writefile{toc}{\contentsline {paragraph}{}{17}}
\@writefile{toc}{\contentsline {paragraph}{}{17}}
\@writefile{toc}{\contentsline {paragraph}{}{17}}
\@writefile{toc}{\contentsline {paragraph}{}{17}}
\@writefile{toc}{\contentsline {paragraph}{}{17}}
\@writefile{toc}{\contentsline {paragraph}{}{17}}
\@writefile{toc}{\contentsline {paragraph}{}{17}}
\@writefile{toc}{\contentsline {paragraph}{}{18}}
\@writefile{toc}{\contentsline {paragraph}{}{18}}
\@writefile{toc}{\contentsline {paragraph}{}{18}}
\@writefile{toc}{\contentsline {paragraph}{}{18}}
\@writefile{toc}{\contentsline {subsubsection}{\numberline {4.1.5}Conclusion}{19}}
\@writefile{toc}{\contentsline {paragraph}{}{19}}
\@writefile{toc}{\contentsline {paragraph}{}{19}}
\@writefile{toc}{\contentsline {paragraph}{}{19}}
\@writefile{toc}{\contentsline {subsection}{\numberline {4.2}Morgan}{20}}
\@writefile{toc}{\contentsline {subsubsection}{\numberline {4.2.1}Introduction}{20}}
\@writefile{toc}{\contentsline {paragraph}{}{20}}
\@writefile{toc}{\contentsline {subsubsection}{\numberline {4.2.2}Travail personnel}{20}}
\@writefile{toc}{\contentsline {paragraph}{}{20}}
\@writefile{lof}{\contentsline {figure}{\numberline {4}{\ignorespaces  Niveau multijoueur r\IeC {\'e}alis\IeC {\'e} sur \textit  {Unity}}}{21}}
\newlabel{m1}{{4}{21}}
\@writefile{toc}{\contentsline {paragraph}{}{21}}
\@writefile{toc}{\contentsline {paragraph}{}{21}}
\@writefile{toc}{\contentsline {paragraph}{}{22}}
\@writefile{lof}{\contentsline {figure}{\numberline {5}{\ignorespaces  Porte r\IeC {\'e}alis\IeC {\'e}e par Morgan}}{23}}
\newlabel{m2}{{5}{23}}
\@writefile{toc}{\contentsline {subsubsection}{\numberline {4.2.3}Entraide}{23}}
\@writefile{toc}{\contentsline {paragraph}{}{23}}
\@writefile{toc}{\contentsline {subsubsection}{\numberline {4.2.4}Conclusion}{24}}
\@writefile{toc}{\contentsline {paragraph}{}{24}}
\@writefile{toc}{\contentsline {subsection}{\numberline {4.3}L\IeC {\'e}o}{25}}
\@writefile{toc}{\contentsline {subsubsection}{\numberline {4.3.1}Introduction}{25}}
\@writefile{toc}{\contentsline {paragraph}{}{25}}
\@writefile{toc}{\contentsline {paragraph}{}{25}}
\@writefile{toc}{\contentsline {subsubsection}{\numberline {4.3.2}Menu du jeu}{25}}
\@writefile{toc}{\contentsline {paragraph}{}{25}}
\@writefile{toc}{\contentsline {paragraph}{}{25}}
\@writefile{toc}{\contentsline {paragraph}{}{26}}
\@writefile{toc}{\contentsline {paragraph}{}{26}}
\@writefile{toc}{\contentsline {paragraph}{}{26}}
\@writefile{toc}{\contentsline {paragraph}{}{26}}
\@writefile{toc}{\contentsline {paragraph}{}{27}}
\@writefile{toc}{\contentsline {paragraph}{}{27}}
\@writefile{toc}{\contentsline {paragraph}{}{27}}
\@writefile{toc}{\contentsline {paragraph}{}{27}}
\@writefile{lof}{\contentsline {figure}{\numberline {6}{\ignorespaces  Sc\IeC {\`e}ne d\IeC {\textquoteright }entr\IeC {\'e}e du menu apr\IeC {\`e}s un premier essai sur Unity}}{28}}
\newlabel{l1}{{6}{28}}
\@writefile{toc}{\contentsline {paragraph}{}{28}}
\@writefile{toc}{\contentsline {paragraph}{}{28}}
\@writefile{lof}{\contentsline {figure}{\numberline {7}{\ignorespaces  M\IeC {\'e}thode nominative, mettant en avant un code redondant}}{29}}
\newlabel{l2}{{7}{29}}
\@writefile{toc}{\contentsline {paragraph}{}{29}}
\@writefile{lof}{\contentsline {figure}{\numberline {8}{\ignorespaces  Menu du monde 1 avec le bouton \IeC {\guillemotleft } World 2 \IeC {\guillemotright }}}{30}}
\newlabel{l3}{{8}{30}}
\@writefile{toc}{\contentsline {paragraph}{}{30}}
\@writefile{toc}{\contentsline {subsubsection}{\numberline {4.3.3}Commandes/P\IeC {\'e}riph\IeC {\'e}riques}{30}}
\@writefile{toc}{\contentsline {paragraph}{}{30}}
\@writefile{toc}{\contentsline {paragraph}{}{30}}
\@writefile{toc}{\contentsline {paragraph}{}{31}}
\@writefile{toc}{\contentsline {paragraph}{}{31}}
\@writefile{toc}{\contentsline {paragraph}{}{31}}
\@writefile{lof}{\contentsline {figure}{\numberline {9}{\ignorespaces  M\IeC {\'e}thode propos\IeC {\'e}e par la vid\IeC {\'e}o GCONFS}}{31}}
\newlabel{l4}{{9}{31}}
\@writefile{toc}{\contentsline {paragraph}{}{31}}
\@writefile{toc}{\contentsline {paragraph}{}{32}}
\@writefile{lof}{\contentsline {figure}{\numberline {10}{\ignorespaces  M\IeC {\'e}thode trouv\IeC {\'e}e sur un site diff\IeC {\'e}rent de GCONFS}}{32}}
\newlabel{l5}{{10}{32}}
\@writefile{toc}{\contentsline {paragraph}{}{32}}
\@writefile{toc}{\contentsline {paragraph}{}{32}}
\@writefile{toc}{\contentsline {paragraph}{}{33}}
\@writefile{toc}{\contentsline {paragraph}{}{33}}
\@writefile{toc}{\contentsline {subsubsection}{\numberline {4.3.4}Niveaux}{33}}
\@writefile{lof}{\contentsline {figure}{\numberline {11}{\ignorespaces  Niveau \IeC {\guillemotleft } Crazy Triangle \IeC {\guillemotright } de L\IeC {\'e}o}}{33}}
\newlabel{triangle}{{11}{33}}
\@writefile{toc}{\contentsline {paragraph}{}{33}}
\@writefile{toc}{\contentsline {paragraph}{}{33}}
\@writefile{toc}{\contentsline {paragraph}{}{34}}
\@writefile{toc}{\contentsline {paragraph}{}{34}}
\@writefile{toc}{\contentsline {paragraph}{}{34}}
\@writefile{lof}{\contentsline {figure}{\numberline {12}{\ignorespaces  Niveau \IeC {\guillemotleft } Mad Circles \IeC {\guillemotright } de L\IeC {\'e}o}}{35}}
\newlabel{mad}{{12}{35}}
\@writefile{toc}{\contentsline {subsubsection}{\numberline {4.3.5}Conclusion}{35}}
\@writefile{toc}{\contentsline {paragraph}{}{35}}
\@writefile{toc}{\contentsline {paragraph}{}{35}}
\@writefile{toc}{\contentsline {subsection}{\numberline {4.4}S\IeC {\'e}bastien}{36}}
\@writefile{toc}{\contentsline {subsubsection}{\numberline {4.4.1}Introduction}{36}}
\@writefile{toc}{\contentsline {paragraph}{}{36}}
\@writefile{toc}{\contentsline {paragraph}{}{36}}
\@writefile{lof}{\contentsline {figure}{\numberline {13}{\ignorespaces  Niveau de \textit  {Alone in Space}}}{37}}
\newlabel{scratch}{{13}{37}}
\@writefile{toc}{\contentsline {paragraph}{}{37}}
\@writefile{toc}{\contentsline {subsubsection}{\numberline {4.4.2}Reprise des objectifs}{37}}
\@writefile{toc}{\contentsline {paragraph}{}{37}}
\@writefile{toc}{\contentsline {paragraph}{}{38}}
\@writefile{toc}{\contentsline {paragraph}{}{38}}
\@writefile{toc}{\contentsline {subsubsection}{\numberline {4.4.3}Travail personnel}{38}}
\@writefile{toc}{\contentsline {paragraph}{}{38}}
\@writefile{toc}{\contentsline {paragraph}{}{38}}
\@writefile{toc}{\contentsline {paragraph}{}{39}}
\@writefile{toc}{\contentsline {paragraph}{}{39}}
\@writefile{toc}{\contentsline {paragraph}{}{40}}
\@writefile{lof}{\contentsline {figure}{\numberline {14}{\ignorespaces  Plan du niveau \textit  {Westworld}}}{41}}
\newlabel{ww}{{14}{41}}
\@writefile{toc}{\contentsline {paragraph}{}{41}}
\@writefile{toc}{\contentsline {paragraph}{}{42}}
\@writefile{toc}{\contentsline {paragraph}{}{42}}
\@writefile{lof}{\contentsline {figure}{\numberline {15}{\ignorespaces  Mini-map}}{43}}
\newlabel{map}{{15}{43}}
\@writefile{toc}{\contentsline {paragraph}{}{43}}
\@writefile{toc}{\contentsline {paragraph}{}{43}}
\@writefile{toc}{\contentsline {subsubsection}{\numberline {4.4.4}B\IeC {\'e}n\IeC {\'e}fices du projet}{44}}
\@writefile{toc}{\contentsline {paragraph}{}{44}}
\@writefile{toc}{\contentsline {paragraph}{}{44}}
\@writefile{toc}{\contentsline {paragraph}{}{45}}
\@writefile{toc}{\contentsline {subsubsection}{\numberline {4.4.5}Conclusion}{45}}
\@writefile{toc}{\contentsline {paragraph}{}{45}}
\@writefile{toc}{\contentsline {subsection}{\numberline {4.5}Anass}{46}}
\@writefile{toc}{\contentsline {subsubsection}{\numberline {4.5.1}Introduction}{46}}
\@writefile{toc}{\contentsline {paragraph}{}{46}}
\@writefile{toc}{\contentsline {subsubsection}{\numberline {4.5.2}Travail personnel}{46}}
\@writefile{toc}{\contentsline {paragraph}{}{46}}
\@writefile{toc}{\contentsline {paragraph}{}{46}}
\@writefile{lof}{\contentsline {figure}{\numberline {16}{\ignorespaces  Exemple de labyrinthe g\IeC {\'e}n\IeC {\'e}r\IeC {\'e} pour le mode \IeC {\guillemotleft } Hardcore \IeC {\guillemotright }}}{47}}
\newlabel{a1}{{16}{47}}
\@writefile{toc}{\contentsline {paragraph}{}{47}}
\@writefile{toc}{\contentsline {paragraph}{}{47}}
\@writefile{toc}{\contentsline {paragraph}{}{47}}
\@writefile{toc}{\contentsline {paragraph}{}{48}}
\@writefile{lof}{\contentsline {figure}{\numberline {17}{\ignorespaces  Menu pause}}{48}}
\newlabel{a2}{{17}{48}}
\@writefile{toc}{\contentsline {subsubsection}{\numberline {4.5.3}B\IeC {\'e}n\IeC {\'e}fices du projet}{48}}
\@writefile{toc}{\contentsline {paragraph}{}{48}}
\@writefile{toc}{\contentsline {subsubsection}{\numberline {4.5.4}Conclusion}{48}}
\@writefile{toc}{\contentsline {paragraph}{}{48}}
\@writefile{toc}{\contentsline {section}{\numberline {5}Travail en cours}{49}}
\@writefile{toc}{\contentsline {paragraph}{}{49}}
\@writefile{toc}{\contentsline {paragraph}{}{49}}
\@writefile{toc}{\contentsline {paragraph}{}{49}}
\@writefile{toc}{\contentsline {paragraph}{}{49}}
\@writefile{toc}{\contentsline {section}{\numberline {6}Conclusion}{49}}
\@writefile{toc}{\contentsline {paragraph}{}{49}}
\@writefile{toc}{\contentsline {paragraph}{}{49}}
\@writefile{toc}{\contentsline {paragraph}{}{49}}
\@writefile{toc}{\contentsline {paragraph}{}{50}}
\@writefile{toc}{\contentsline {paragraph}{}{50}}
\@writefile{toc}{\contentsline {paragraph}{}{50}}
