\babel@toc {french}{}
\contentsline {section}{\numberline {1}Introduction}{3}
\contentsline {paragraph}{}{3}
\contentsline {paragraph}{}{3}
\contentsline {paragraph}{}{3}
\contentsline {paragraph}{}{3}
\contentsline {paragraph}{}{3}
\contentsline {paragraph}{}{3}
\contentsline {paragraph}{}{4}
\contentsline {paragraph}{}{4}
\contentsline {section}{\numberline {2}Reprise du cahier des charges}{5}
\contentsline {paragraph}{}{5}
\contentsline {paragraph}{}{6}
\contentsline {paragraph}{}{6}
\contentsline {section}{\numberline {3}Bonus}{6}
\contentsline {section}{\numberline {4}D\IeC {\'e}tail du travail r\IeC {\'e}alis\IeC {\'e}}{7}
\contentsline {subsection}{\numberline {4.1}Pierre}{7}
\contentsline {subsubsection}{\numberline {4.1.1}Introduction}{7}
\contentsline {paragraph}{}{7}
\contentsline {paragraph}{}{7}
\contentsline {subsubsection}{\numberline {4.1.2}Reprise des objectifs}{7}
\contentsline {paragraph}{}{7}
\contentsline {paragraph}{}{8}
\contentsline {paragraph}{}{8}
\contentsline {subsubsection}{\numberline {4.1.3}Travail personnel}{8}
\contentsline {paragraph}{}{8}
\contentsline {paragraph}{}{8}
\contentsline {paragraph}{}{8}
\contentsline {paragraph}{}{9}
\contentsline {paragraph}{}{9}
\contentsline {paragraph}{}{9}
\contentsline {paragraph}{}{9}
\contentsline {paragraph}{}{9}
\contentsline {paragraph}{}{10}
\contentsline {paragraph}{}{11}
\contentsline {paragraph}{}{11}
\contentsline {paragraph}{}{11}
\contentsline {paragraph}{}{12}
\contentsline {paragraph}{}{12}
\contentsline {paragraph}{}{12}
\contentsline {paragraph}{}{12}
\contentsline {paragraph}{}{13}
\contentsline {paragraph}{}{13}
\contentsline {paragraph}{}{13}
\contentsline {paragraph}{}{13}
\contentsline {paragraph}{}{14}
\contentsline {paragraph}{}{14}
\contentsline {paragraph}{}{14}
\contentsline {paragraph}{}{15}
\contentsline {paragraph}{}{15}
\contentsline {paragraph}{}{15}
\contentsline {paragraph}{}{15}
\contentsline {paragraph}{}{15}
\contentsline {paragraph}{}{16}
\contentsline {paragraph}{}{16}
\contentsline {paragraph}{}{16}
\contentsline {paragraph}{}{16}
\contentsline {subsubsection}{\numberline {4.1.4}B\IeC {\'e}n\IeC {\'e}fices du projet}{17}
\contentsline {paragraph}{}{17}
\contentsline {paragraph}{}{17}
\contentsline {paragraph}{}{17}
\contentsline {paragraph}{}{17}
\contentsline {paragraph}{}{17}
\contentsline {paragraph}{}{17}
\contentsline {paragraph}{}{17}
\contentsline {paragraph}{}{18}
\contentsline {paragraph}{}{18}
\contentsline {paragraph}{}{18}
\contentsline {paragraph}{}{18}
\contentsline {subsubsection}{\numberline {4.1.5}Conclusion}{19}
\contentsline {paragraph}{}{19}
\contentsline {paragraph}{}{19}
\contentsline {paragraph}{}{19}
\contentsline {subsection}{\numberline {4.2}Morgan}{20}
\contentsline {subsubsection}{\numberline {4.2.1}Introduction}{20}
\contentsline {paragraph}{}{20}
\contentsline {subsubsection}{\numberline {4.2.2}Travail personnel}{20}
\contentsline {paragraph}{}{20}
\contentsline {paragraph}{}{21}
\contentsline {paragraph}{}{21}
\contentsline {paragraph}{}{22}
\contentsline {subsubsection}{\numberline {4.2.3}Entraide}{23}
\contentsline {paragraph}{}{23}
\contentsline {subsubsection}{\numberline {4.2.4}Conclusion}{24}
\contentsline {paragraph}{}{24}
\contentsline {subsection}{\numberline {4.3}L\IeC {\'e}o}{25}
\contentsline {subsubsection}{\numberline {4.3.1}Introduction}{25}
\contentsline {paragraph}{}{25}
\contentsline {paragraph}{}{25}
\contentsline {subsubsection}{\numberline {4.3.2}Menu du jeu}{25}
\contentsline {paragraph}{}{25}
\contentsline {paragraph}{}{25}
\contentsline {paragraph}{}{26}
\contentsline {paragraph}{}{26}
\contentsline {paragraph}{}{26}
\contentsline {paragraph}{}{26}
\contentsline {paragraph}{}{27}
\contentsline {paragraph}{}{27}
\contentsline {paragraph}{}{27}
\contentsline {paragraph}{}{27}
\contentsline {paragraph}{}{28}
\contentsline {paragraph}{}{28}
\contentsline {paragraph}{}{29}
\contentsline {paragraph}{}{30}
\contentsline {subsubsection}{\numberline {4.3.3}Commandes/P\IeC {\'e}riph\IeC {\'e}riques}{30}
\contentsline {paragraph}{}{30}
\contentsline {paragraph}{}{30}
\contentsline {paragraph}{}{31}
\contentsline {paragraph}{}{31}
\contentsline {paragraph}{}{31}
\contentsline {paragraph}{}{31}
\contentsline {paragraph}{}{32}
\contentsline {paragraph}{}{32}
\contentsline {paragraph}{}{32}
\contentsline {paragraph}{}{33}
\contentsline {paragraph}{}{33}
\contentsline {subsubsection}{\numberline {4.3.4}Niveaux}{33}
\contentsline {paragraph}{}{33}
\contentsline {paragraph}{}{33}
\contentsline {paragraph}{}{34}
\contentsline {paragraph}{}{34}
\contentsline {paragraph}{}{34}
\contentsline {subsubsection}{\numberline {4.3.5}Conclusion}{35}
\contentsline {paragraph}{}{35}
\contentsline {paragraph}{}{35}
\contentsline {subsection}{\numberline {4.4}S\IeC {\'e}bastien}{36}
\contentsline {subsubsection}{\numberline {4.4.1}Introduction}{36}
\contentsline {paragraph}{}{36}
\contentsline {paragraph}{}{36}
\contentsline {paragraph}{}{37}
\contentsline {subsubsection}{\numberline {4.4.2}Reprise des objectifs}{37}
\contentsline {paragraph}{}{37}
\contentsline {paragraph}{}{38}
\contentsline {paragraph}{}{38}
\contentsline {subsubsection}{\numberline {4.4.3}Travail personnel}{38}
\contentsline {paragraph}{}{38}
\contentsline {paragraph}{}{38}
\contentsline {paragraph}{}{39}
\contentsline {paragraph}{}{39}
\contentsline {paragraph}{}{40}
\contentsline {paragraph}{}{41}
\contentsline {paragraph}{}{42}
\contentsline {paragraph}{}{42}
\contentsline {paragraph}{}{43}
\contentsline {paragraph}{}{43}
\contentsline {subsubsection}{\numberline {4.4.4}B\IeC {\'e}n\IeC {\'e}fices du projet}{44}
\contentsline {paragraph}{}{44}
\contentsline {paragraph}{}{44}
\contentsline {paragraph}{}{45}
\contentsline {subsubsection}{\numberline {4.4.5}Conclusion}{45}
\contentsline {paragraph}{}{45}
\contentsline {subsection}{\numberline {4.5}Anass}{46}
\contentsline {subsubsection}{\numberline {4.5.1}Introduction}{46}
\contentsline {paragraph}{}{46}
\contentsline {subsubsection}{\numberline {4.5.2}Travail personnel}{46}
\contentsline {paragraph}{}{46}
\contentsline {paragraph}{}{46}
\contentsline {paragraph}{}{47}
\contentsline {paragraph}{}{47}
\contentsline {paragraph}{}{47}
\contentsline {paragraph}{}{48}
\contentsline {subsubsection}{\numberline {4.5.3}B\IeC {\'e}n\IeC {\'e}fices du projet}{48}
\contentsline {paragraph}{}{48}
\contentsline {subsubsection}{\numberline {4.5.4}Conclusion}{48}
\contentsline {paragraph}{}{48}
\contentsline {section}{\numberline {5}Travail en cours}{49}
\contentsline {paragraph}{}{49}
\contentsline {paragraph}{}{49}
\contentsline {paragraph}{}{49}
\contentsline {paragraph}{}{49}
\contentsline {section}{\numberline {6}Conclusion}{49}
\contentsline {paragraph}{}{49}
\contentsline {paragraph}{}{49}
\contentsline {paragraph}{}{49}
\contentsline {paragraph}{}{50}
\contentsline {paragraph}{}{50}
\contentsline {paragraph}{}{50}
